barj4: G.CMS.Administrators
barj4: G.CMS.Administrators
barj4: G.CMS.Administrators
davbr: G.CMS.Administrators,G.CMS.EXDirector,G.CMS.IT
davbr: G.CMS.Administrators,G.CMS.EXDirector,G.CMS.IT
davbr: G.CMS.Administrators,G.CMS.EXDirector,G.CMS.IT
davbr: G.CMS.Administrators,G.CMS.EXDirector,G.CMS.IT
davbr: G.CMS.Administrators,G.CMS.EXDirector,G.CMS.IT
davbr: G.CMS.Administrators,G.CMS.EXDirector,G.CMS.IT
davbr: G.CMS.Administrators,G.CMS.EXDirector,G.CMS.IT
davbr: G.CMS.Administrators,G.CMS.EXDirector,G.CMS.IT
davbr: G.CMS.Administrators,G.CMS.EXDirector,G.CMS.IT
davbr: G.CMS.Administrators,G.CMS.EXDirector,G.CMS.IT
davbr: G.CMS.Administrators,G.CMS.EXDirector,G.CMS.IT
davbr: G.CMS.Administrators,G.CMS.EXDirector,G.CMS.IT
: G.CMS.Requestor
: G.CMS.Requestor
: G.CMS.Requestor
: G.CMS.Requestor
: G.CMS.Requestor
: G.CMS.Requestor
: G.CMS.Requestor
: G.CMS.Requestor
: G.CMS.Requestor
: G.CMS.Requestor
: G.CMS.Requestor
: G.CMS.Requestor
davbr: G.CMS.Administrators,G.CMS.EXDirector,G.CMS.IT
: G.CMS.Requestor
davbr: G.CMS.Administrators,G.CMS.EXDirector,G.CMS.IT
davbr: G.CMS.Administrators,G.CMS.EXDirector,G.CMS.IT
davbr: G.CMS.Administrators,G.CMS.EXDirector,G.CMS.IT
: G.CMS.Requestor
: G.CMS.Requestor
davbr: G.CMS.Administrators,G.CMS.EXDirector,G.CMS.IT
davbr: G.CMS.Administrators,G.CMS.EXDirector,G.CMS.IT
davbr: G.CMS.Administrators,G.CMS.EXDirector,G.CMS.IT
davbr: G.CMS.Administrators,G.CMS.EXDirector,G.CMS.IT
davbr: G.CMS.Administrators,G.CMS.EXDirector,G.CMS.IT
davbr: G.CMS.Administrators,G.CMS.EXDirector,G.CMS.IT
davbr: G.CMS.Administrators,G.CMS.EXDirector,G.CMS.IT
davbr: G.CMS.Administrators,G.CMS.EXDirector,G.CMS.IT
davbr: G.CMS.Administrators,G.CMS.EXDirector,G.CMS.IT
davbr: G.CMS.Administrators,G.CMS.EXDirector,G.CMS.IT
davbr: G.CMS.Administrators,G.CMS.EXDirector,G.CMS.IT
davbr: G.CMS.Administrators,G.CMS.EXDirector,G.CMS.IT
davbr: G.CMS.Administrators,G.CMS.EXDirector,G.CMS.IT
davbr: G.CMS.Administrators,G.CMS.EXDirector,G.CMS.IT
davbr: G.CMS.Administrators,G.CMS.EXDirector,G.CMS.IT
davbr: G.CMS.Administrators,G.CMS.EXDirector,G.CMS.IT
davbr: G.CMS.Administrators,G.CMS.EXDirector,G.CMS.IT
davbr: G.CMS.Administrators,G.CMS.EXDirector,G.CMS.IT
davbr: G.CMS.Administrators,G.CMS.EXDirector,G.CMS.IT
davbr: G.CMS.Administrators,G.CMS.EXDirector,G.CMS.IT
davbr: G.CMS.Administrators,G.CMS.EXDirector,G.CMS.IT
davbr: G.CMS.Administrators,G.CMS.EXDirector,G.CMS.IT
davbr: G.CMS.Administrators,G.CMS.EXDirector,G.CMS.IT
davbr: G.CMS.Administrators,G.CMS.EXDirector,G.CMS.IT
davbr: G.CMS.Administrators,G.CMS.EXDirector,G.CMS.IT
davbr: G.CMS.Administrators,G.CMS.EXDirector,G.CMS.IT
davbr: G.CMS.Administrators,G.CMS.EXDirector,G.CMS.IT
davbr: G.CMS.Administrators,G.CMS.EXDirector,G.CMS.IT
barj4: G.CMS.Administrators
barj4: G.CMS.Administrators
barj4: G.CMS.Administrators
barj4: G.CMS.Administrators
barj4: G.CMS.Administrators
barj4: G.CMS.Administrators
barj4: G.CMS.Administrators
davbr: G.CMS.Administrators,G.CMS.EXDirector,G.CMS.IT
davbr: G.CMS.Administrators,G.CMS.EXDirector,G.CMS.IT
davbr: G.CMS.Administrators,G.CMS.EXDirector,G.CMS.IT
davbr: G.CMS.Administrators,G.CMS.EXDirector,G.CMS.IT
davbr: G.CMS.Administrators,G.CMS.EXDirector,G.CMS.IT
davbr: G.CMS.Administrators,G.CMS.EXDirector,G.CMS.IT
davbr: G.CMS.Administrators,G.CMS.EXDirector,G.CMS.IT
davbr: G.CMS.Administrators,G.CMS.EXDirector,G.CMS.IT
davbr: G.CMS.Administrators,G.CMS.EXDirector,G.CMS.IT
davbr: G.CMS.Administrators,G.CMS.EXDirector,G.CMS.IT
davbr: G.CMS.Administrators,G.CMS.EXDirector,G.CMS.IT
davbr: G.CMS.Administrators,G.CMS.EXDirector,G.CMS.IT
davbr: G.CMS.Administrators,G.CMS.EXDirector,G.CMS.IT
davbr: G.CMS.Administrators,G.CMS.EXDirector,G.CMS.IT
davbr: G.CMS.Administrators,G.CMS.EXDirector,G.CMS.IT
davbr: G.CMS.Administrators,G.CMS.EXDirector,G.CMS.IT
davbr: G.CMS.Administrators,G.CMS.EXDirector,G.CMS.IT
davbr: G.CMS.Administrators,G.CMS.EXDirector,G.CMS.IT
davbr: G.CMS.Administrators,G.CMS.EXDirector,G.CMS.IT
davbr: G.CMS.Administrators,G.CMS.EXDirector,G.CMS.IT
davbr: G.CMS.Administrators,G.CMS.EXDirector,G.CMS.IT
davbr: G.CMS.Administrators,G.CMS.EXDirector,G.CMS.IT
davbr: G.CMS.Administrators,G.CMS.EXDirector,G.CMS.IT
davbr: G.CMS.Administrators,G.CMS.EXDirector,G.CMS.IT
davbr: G.CMS.Administrators,G.CMS.EXDirector,G.CMS.IT
barj4: G.CMS.Administrators
davbr: G.CMS.Administrators,G.CMS.EXDirector,G.CMS.IT
davbr: G.CMS.Administrators,G.CMS.EXDirector,G.CMS.IT
davbr: G.CMS.Administrators,G.CMS.EXDirector,G.CMS.IT
davbr: G.CMS.Administrators,G.CMS.EXDirector,G.CMS.IT
davbr: G.CMS.Administrators,G.CMS.EXDirector,G.CMS.IT
davbr: G.CMS.Administrators,G.CMS.EXDirector,G.CMS.IT
davbr: G.CMS.Administrators,G.CMS.EXDirector,G.CMS.IT
davbr: G.CMS.Administrators,G.CMS.EXDirector,G.CMS.IT
davbr: G.CMS.Administrators,G.CMS.EXDirector,G.CMS.IT
davbr: G.CMS.Administrators,G.CMS.EXDirector,G.CMS.IT
davbr: G.CMS.Administrators,G.CMS.EXDirector,G.CMS.IT
davbr: G.CMS.Administrators,G.CMS.EXDirector,G.CMS.IT
: G.CMS.Requestor
barj4: G.CMS.Administrators
barj4: G.CMS.Administrators
barj4: G.CMS.Administrators
barj4: G.CMS.Administrators
barj4: G.CMS.Administrators
